<?xml version="1.0" encoding="UTF-8"?>
<svg height="128px" viewBox="0 0 128 128" width="128px" xmlns="http://www.w3.org/2000/svg" xmlns:xlink="http://www.w3.org/1999/xlink">
    <linearGradient id="a" gradientTransform="matrix(0.196428 0 0 0.131579 2.59729 179.130783)" gradientUnits="userSpaceOnUse" x1="88.595886" x2="536.595886" y1="-449.394012" y2="-449.394012">
        <stop offset="0" stop-color="#77767b"/>
        <stop offset="0.022727" stop-color="#c0bfbc"/>
        <stop offset="0.0454543" stop-color="#9a9996"/>
        <stop offset="0.954595" stop-color="#9a9996"/>
        <stop offset="0.977274" stop-color="#c0bfbc"/>
        <stop offset="1" stop-color="#77767b"/>
    </linearGradient>
    <linearGradient id="b" gradientUnits="userSpaceOnUse" x1="33.06144" x2="88.983009" y1="49.48671" y2="22.252174">
        <stop offset="0" stop-color="#f7618f"/>
        <stop offset="1" stop-color="#6c2fa3"/>
    </linearGradient>
    <filter id="c" height="100%" width="100%" x="0%" y="0%">
        <feColorMatrix in="SourceGraphic" type="matrix" values="0 0 0 0 1 0 0 0 0 1 0 0 0 0 1 0 0 0 1 0"/>
    </filter>
    <mask id="d">
        <g filter="url(#c)">
            <rect fill-opacity="0.4" height="128" width="128"/>
        </g>
    </mask>
    <clipPath id="e">
        <rect height="152" width="192"/>
    </clipPath>
    <mask id="f">
        <g filter="url(#c)">
            <rect fill-opacity="0.4" height="128" width="128"/>
        </g>
    </mask>
    <clipPath id="g">
        <rect height="152" width="192"/>
    </clipPath>
    <mask id="h">
        <g filter="url(#c)">
            <rect fill-opacity="0.4" height="128" width="128"/>
        </g>
    </mask>
    <clipPath id="i">
        <rect height="152" width="192"/>
    </clipPath>
    <linearGradient id="j" gradientUnits="userSpaceOnUse" x1="40" x2="40" y1="68" y2="72">
        <stop offset="0" stop-color="#3d3846"/>
        <stop offset="0.7" stop-color="#5e5c64"/>
        <stop offset="1" stop-color="#5e5c64"/>
    </linearGradient>
    <path d="m 28 8 h 72 c 4.417969 0 8 3.582031 8 8 v 60 c 0 4.417969 -3.582031 8 -8 8 h -72 c -4.417969 0 -8 -3.582031 -8 -8 v -60 c 0 -4.417969 3.582031 -8 8 -8 z m 0 0" fill="#9a9996"/>
    <path d="m 20 66 h 88 v 8 h -88 z m 0 0" fill="#3d3846"/>
    <path d="m 28 80 h 72 c 4.417969 0 8 3.582031 8 8 v 24 c 0 4.417969 -3.582031 8 -8 8 h -72 c -4.417969 0 -8 -3.582031 -8 -8 v -24 c 0 -4.417969 3.582031 -8 8 -8 z m 0 0" fill="url(#a)"/>
    <path d="m 28 68 h 72 c 4.417969 0 8 3.582031 8 8 v 28 c 0 4.417969 -3.582031 8 -8 8 h -72 c -4.417969 0 -8 -3.582031 -8 -8 v -28 c 0 -4.417969 3.582031 -8 8 -8 z m 0 0" fill="#c0bfbc"/>
    <path d="m 28 14 h 72 c 1.105469 0 2 0.894531 2 2 v 44 c 0 1.105469 -0.894531 2 -2 2 h -72 c -1.105469 0 -2 -0.894531 -2 -2 v -44 c 0 -1.105469 0.894531 -2 2 -2 z m 0 0"/>
    <path d="m 28 16 h 72 v 44 h -72 z m 0 0" fill="url(#b)"/>
    <g fill="#f6f5f4">
        <path d="m 34 20 h 22 c 1.105469 0 2 0.894531 2 2 s -0.894531 2 -2 2 h -22 c -1.105469 0 -2 -0.894531 -2 -2 s 0.894531 -2 2 -2 z m 0 0"/>
        <path d="m 44 28 h 12 c 1.105469 0 2 0.894531 2 2 s -0.894531 2 -2 2 h -12 c -1.105469 0 -2 -0.894531 -2 -2 s 0.894531 -2 2 -2 z m 0 0"/>
        <path d="m 64 28 h 2 c 1.105469 0 2 0.894531 2 2 s -0.894531 2 -2 2 h -2 c -1.105469 0 -2 -0.894531 -2 -2 s 0.894531 -2 2 -2 z m 0 0"/>
        <path d="m 49 36 h 26 c 1.105469 0 2 0.894531 2 2 s -0.894531 2 -2 2 h -26 c -1.105469 0 -2 -0.894531 -2 -2 s 0.894531 -2 2 -2 z m 0 0"/>
        <path d="m 83 36 h 2 c 1.105469 0 2 0.894531 2 2 s -0.894531 2 -2 2 h -2 c -1.105469 0 -2 -0.894531 -2 -2 s 0.894531 -2 2 -2 z m 0 0"/>
        <path d="m 93 36 h 2 c 1.105469 0 2 0.894531 2 2 s -0.894531 2 -2 2 h -2 c -1.105469 0 -2 -0.894531 -2 -2 s 0.894531 -2 2 -2 z m 0 0"/>
        <path d="m 39 44 h 11 c 1.105469 0 2 0.894531 2 2 s -0.894531 2 -2 2 h -11 c -1.105469 0 -2 -0.894531 -2 -2 s 0.894531 -2 2 -2 z m 0 0"/>
        <path d="m 79 44 h 11 c 1.105469 0 2 0.894531 2 2 s -0.894531 2 -2 2 h -11 c -1.105469 0 -2 -0.894531 -2 -2 s 0.894531 -2 2 -2 z m 0 0"/>
        <path d="m 49 52 h 14 c 1.105469 0 2 0.894531 2 2 s -0.894531 2 -2 2 h -14 c -1.105469 0 -2 -0.894531 -2 -2 s 0.894531 -2 2 -2 z m 0 0"/>
        <path d="m 34 52 h 2 c 1.105469 0 2 0.894531 2 2 s -0.894531 2 -2 2 h -2 c -1.105469 0 -2 -0.894531 -2 -2 s 0.894531 -2 2 -2 z m 0 0"/>
        <path d="m 81 52 h 2 c 1.105469 0 2 0.894531 2 2 s -0.894531 2 -2 2 h -2 c -1.105469 0 -2 -0.894531 -2 -2 s 0.894531 -2 2 -2 z m 0 0"/>
        <path d="m 71 52 h 2 c 1.105469 0 2 0.894531 2 2 s -0.894531 2 -2 2 h -2 c -1.105469 0 -2 -0.894531 -2 -2 s 0.894531 -2 2 -2 z m 0 0"/>
    </g>
    <path d="m 24 68 h 80 c 2.210938 0 4 1.789062 4 4 v 20 c 0 2.210938 -1.789062 4 -4 4 h -80 c -2.210938 0 -4 -1.789062 -4 -4 v -20 c 0 -2.210938 1.789062 -4 4 -4 z m 0 0" fill="#c0bfbc"/>
    <path d="m 30 76 h 68 c 1.105469 0 2 0.894531 2 2 v 32 c 0 1.105469 -0.894531 2 -2 2 h -68 c -1.105469 0 -2 -0.894531 -2 -2 v -32 c 0 -1.105469 0.894531 -2 2 -2 z m 0 0" fill="#9a9996"/>
    <path d="m 30 78 h 68 c 1.105469 0 2 0.894531 2 2 v 30 c 0 1.105469 -0.894531 2 -2 2 h -68 c -1.105469 0 -2 -0.894531 -2 -2 v -30 c 0 -1.105469 0.894531 -2 2 -2 z m 0 0" fill="#ffffff"/>
    <path d="m 28 110 h 72 v 4 h -72 z m 0 0" fill="#deddda"/>
    <g clip-path="url(#e)" mask="url(#d)" transform="matrix(1 0 0 1 -8 -16)">
        <path d="m 53 102 h 1 v 28 h -1 z m 0 0" fill="#3d3846"/>
    </g>
    <g clip-path="url(#g)" mask="url(#f)" transform="matrix(1 0 0 1 -8 -16)">
        <path d="m 72 102 h 1 v 28 h -1 z m 0 0" fill="#3d3846"/>
    </g>
    <g clip-path="url(#i)" mask="url(#h)" transform="matrix(1 0 0 1 -8 -16)">
        <path d="m 90 102 h 1 v 28 h -1 z m 0 0" fill="#3d3846"/>
    </g>
    <path d="m 44 84 h 2 c 2.210938 0 4 1.789062 4 4 v 8 c 0 2.210938 -1.789062 4 -4 4 h -2 c -2.210938 0 -4 -1.789062 -4 -4 v -8 c 0 -2.210938 1.789062 -4 4 -4 z m 0 0" fill="#3d3846"/>
    <path d="m 44 79 h 2 c 2.210938 0 4 1.789062 4 4 v 9 c 0 2.210938 -1.789062 4 -4 4 h -2 c -2.210938 0 -4 -1.789062 -4 -4 v -9 c 0 -2.210938 1.789062 -4 4 -4 z m 0 0" fill="#5e5c64"/>
    <path d="m 40 78 h 10 v 14 h -10 z m 0 0" fill="#5e5c64"/>
    <path d="m 64 84 h 2 c 2.210938 0 4 1.789062 4 4 v 8 c 0 2.210938 -1.789062 4 -4 4 h -2 c -2.210938 0 -4 -1.789062 -4 -4 v -8 c 0 -2.210938 1.789062 -4 4 -4 z m 0 0" fill="#3d3846"/>
    <path d="m 64 79 h 2 c 2.210938 0 4 1.789062 4 4 v 9 c 0 2.210938 -1.789062 4 -4 4 h -2 c -2.210938 0 -4 -1.789062 -4 -4 v -9 c 0 -2.210938 1.789062 -4 4 -4 z m 0 0" fill="#5e5c64"/>
    <path d="m 60 78 h 10 v 14 h -10 z m 0 0" fill="#5e5c64"/>
    <path d="m 82 84 h 2 c 2.210938 0 4 1.789062 4 4 v 8 c 0 2.210938 -1.789062 4 -4 4 h -2 c -2.210938 0 -4 -1.789062 -4 -4 v -8 c 0 -2.210938 1.789062 -4 4 -4 z m 0 0" fill="#3d3846"/>
    <path d="m 82 79 h 2 c 2.210938 0 4 1.789062 4 4 v 9 c 0 2.210938 -1.789062 4 -4 4 h -2 c -2.210938 0 -4 -1.789062 -4 -4 v -9 c 0 -2.210938 1.789062 -4 4 -4 z m 0 0" fill="#5e5c64"/>
    <path d="m 78 78 h 10 v 14 h -10 z m 0 0" fill="#5e5c64"/>
    <path d="m 34 66 h 59.820312 c 1.105469 0 2 0.894531 2 2 v 2 c 0 1.105469 -0.894531 2 -2 2 h -59.820312 c -1.105469 0 -2 -0.894531 -2 -2 v -2 c 0 -1.105469 0.894531 -2 2 -2 z m 0 0" fill="url(#j)"/>
    <path d="m 65 11 c 0 0.550781 -0.449219 1 -1 1 s -1 -0.449219 -1 -1 s 0.449219 -1 1 -1 s 1 0.449219 1 1 z m 0 0" fill="#241f31"/>
</svg>
